%YAML 1.1
%TAG !u! tag:unity3d.com,2011:
--- !u!114 &11400000
MonoBehaviour:
  m_ObjectHideFlags: 0
  m_CorrespondingSourceObject: {fileID: 0}
  m_PrefabInternal: {fileID: 0}
  m_GameObject: {fileID: 0}
  m_Enabled: 1
  m_EditorHideFlags: 0
  m_Script: {fileID: 11500000, guid: 648215995c44bfe41a5747c888c52371, type: 3}
  m_Name: Daisy
  m_EditorClassIdentifier: 
  m_id: 2
  m_name: Daisy
  m_sprite: {fileID: 21300000, guid: 0e4d772b2a76457488c059db903d790e, type: 3}
  m_health: 100
  m_damage: 25
  m_initiative: 4
  m_force: 200
  m_weight: 1
  m_scale: 1
  m_ability:
    m_type: 0
    m_when: 3
    m_value: 0.5
    m_radius: 0
    m_gameObject: {fileID: 0}
    m_firstCollOnly: 0
    m_afterFirstColl: 1
    m_allEnemies: 0
    m_description: Hit for 50% more after boucing against a wall.
