%YAML 1.1
%TAG !u! tag:unity3d.com,2011:
--- !u!114 &11400000
MonoBehaviour:
  m_ObjectHideFlags: 0
  m_CorrespondingSourceObject: {fileID: 0}
  m_PrefabInternal: {fileID: 0}
  m_GameObject: {fileID: 0}
  m_Enabled: 1
  m_EditorHideFlags: 0
  m_Script: {fileID: 11500000, guid: 648215995c44bfe41a5747c888c52371, type: 3}
  m_Name: Gus
  m_EditorClassIdentifier: 
  m_id: 3
  m_name: Gus
  m_sprite: {fileID: 21300000, guid: b313c8dd581b8be48a8ea77124d69bce, type: 3}
  m_health: 100
  m_damage: 25
  m_initiative: 5
  m_force: 200
  m_weight: 1
  m_scale: 0.75
  m_ability:
    m_type: 2
    m_when: 0
    m_value: 1
    m_radius: 6.28
    m_gameObject: {fileID: 1346445204051866, guid: e5b73327081e40b4190fde4531c29204,
      type: 2}
    m_firstCollOnly: 0
    m_afterFirstColl: 0
    m_allEnemies: 1
    m_description: Can walk through other cats, and even some objects !
