%YAML 1.1
%TAG !u! tag:unity3d.com,2011:
--- !u!114 &11400000
MonoBehaviour:
  m_ObjectHideFlags: 0
  m_CorrespondingSourceObject: {fileID: 0}
  m_PrefabInternal: {fileID: 0}
  m_GameObject: {fileID: 0}
  m_Enabled: 1
  m_EditorHideFlags: 0
  m_Script: {fileID: 11500000, guid: 648215995c44bfe41a5747c888c52371, type: 3}
  m_Name: Haydn
  m_EditorClassIdentifier: 
  m_id: 4
  m_name: Haydn
  m_sprite: {fileID: 21300000, guid: 370ae7528ff1d26409412f5bd5c07f74, type: 3}
  m_health: 100
  m_damage: 25
  m_initiative: 1
  m_force: 200
  m_weight: 1
  m_scale: 1
  m_ability:
    m_type: 1
    m_when: 1
    m_value: 2
    m_radius: 5
    m_gameObject: {fileID: 1346445204051866, guid: e5b73327081e40b4190fde4531c29204,
      type: 2}
    m_firstCollOnly: 0
    m_afterFirstColl: 0
    m_allEnemies: 0
    m_description: Throw a projectile toward the closest cat when he stop moving.
